%YAML 1.1
%TAG !u! tag:unity3d.com,2011:
--- !u!21 &2100000
Material:
  serializedVersion: 6
  m_ObjectHideFlags: 0
  m_CorrespondingSourceObject: {fileID: 0}
  m_PrefabInstance: {fileID: 0}
  m_PrefabAsset: {fileID: 0}
  m_Name: LighthouseConcrete GRADIENT
  m_Shader: {fileID: 4800000, guid: e205ec5a2dab342e78812532c2f67fd5, type: 3}
  m_ShaderKeywords: BACK_GRADIENT_ON COLR_1_2 FRONT_GRADIENT_ON LEFT_GRADIENT_ON LIGHTMAP_COLR_ON
    RIGHT_GRADIENT_ON
  m_LightmapFlags: 5
  m_EnableInstancingVariants: 0
  m_DoubleSidedGI: 0
  m_CustomRenderQueue: 2000
  stringTagMap: {}
  disabledShaderPasses: []
  m_SavedProperties:
    serializedVersion: 3
    m_TexEnvs:
    - _MainTex:
        m_Texture: {fileID: 0}
        m_Scale: {x: 1, y: 1}
        m_Offset: {x: 0, y: 0}
    m_Floats:
    - _AmbientPower: 0.14
    - _FogHeight: 15
    - _FogYStartPos: 0
    - _GradientHeight: 10
    - _GradientYStartPos: 3.08
    - _IsWorldSpace: 1
    - _LightmapPower: 0.92
    - _Rotation: 0
    - _ShadowPower: 0.25
    - _UseLightMap: 1
    m_Colors:
    - _AmbientColor: {r: 1, g: 0.766, b: 0, a: 0}
    - _BackBottomColor: {r: 1, g: 1, b: 1, a: 0}
    - _BackColor: {r: 1, g: 1, b: 1, a: 0}
    - _BackTopColor: {r: 1, g: 1, b: 1, a: 0}
    - _BottomColor: {r: 0.0046496587, g: 0.63235295, b: 0.52845734, a: 0}
    - _FogColor: {r: 1, g: 1, b: 1, a: 1}
    - _FrontBottomColor: {r: 1, g: 1, b: 1, a: 0}
    - _FrontColor: {r: 1, g: 1, b: 1, a: 0}
    - _FrontTopColor: {r: 1, g: 0.4009434, b: 0.4009434, a: 0}
    - _LeftBottomColor: {r: 0.8962264, g: 0.15641688, b: 0.29318845, a: 0}
    - _LeftColor: {r: 0.9943205, g: 1, b: 0.89705884, a: 0}
    - _LeftTopColor: {r: 0.9960785, g: 0.9960785, b: 0.8980393, a: 0}
    - _LightTint: {r: 1, g: 1, b: 1, a: 0}
    - _LightmapColor: {r: 0, g: 0, b: 0, a: 1}
    - _Offset: {r: 0, g: 0, b: 0, a: 0}
    - _RightBottomColor: {r: 0.41176474, g: 0.25490198, b: 0.68235296, a: 0}
    - _RightColor: {r: 0, g: 0.91724133, b: 1, a: 0}
    - _RightTopColor: {r: 0.25943398, g: 0.9259435, b: 1, a: 0}
    - _TopColor: {r: 1, g: 1, b: 1, a: 0}
